{
  "event": [
    {
      "title": "Mountaineering Workshop con Herve",
      "description": "Un evento dedicato alla montagna e al giusto approccio per viverla con rispetto e intelligenza, dalle attivita sportive come lo sci...",
      "image": ""
    },
    {
      "title": "Audi Talks Performance: ieri, oggi e domani",
      "description": "Otto puntate con ospiti d'eccezione per condividere visioni all'avanguardia e discutere di una nuova, straordinaria idea",
      "image": ""
    },
    {
      "title": "Cortina e-portrait",
      "description": "Dal 2017 Audi - per tutelare Cortina come patrimonio si e fatta promotrice con il Comune di Ampezzo di un progetto di Corporate Social",
      "image": ""
    },
    {
      "title": "Performance Workshop con Kristian Ghedina",
      "description": "I pluricampioni Kristian Ghedina e Peter Fill, insieme agli chef stellati Costardi Bros, ti guideranno in un'esperienza totale, tra sport",
      "image": ""
    },
    {
      "title": "Wanderlust con Klaus",
      "description": "il dj e creator Klaus portera a Cortina il suo porgetto Wanderlust, suonando all'alba su una delle piste piu famose: un'esperienza in",
      "image": ""
    }
  ]
}